<?xml version="1.0" encoding="UTF-8"?>
<svg xmlns="http://www.w3.org/2000/svg" width="106" height="20">
    <linearGradient id="b" x2="0" y2="100%">
        <stop offset="0" stop-color="#bbb" stop-opacity=".1"/>
        <stop offset="1" stop-opacity=".1"/>
    </linearGradient>
    <mask id="anybadge_28">
        <rect width="106" height="20" rx="3" fill="#fff"/>
    </mask>
    <g mask="url(#anybadge_28)">
        <path fill="#555" d="M0 0h81v20H0z"/>
        <path fill="#E05D44" d="M81 0h25v20H81z"/>
        <path fill="url(#b)" d="M0 0h106v20H0z"/>
    </g>
    <g fill="#fff" text-anchor="middle" font-family="DejaVu Sans,Verdana,Geneva,sans-serif" font-size="11">
        <text x="41.5" y="15" fill="#010101" fill-opacity=".3">lint failures</text>
        <text x="40.5" y="14">lint failures</text>
    </g>
    <g fill="#fff" text-anchor="middle" font-family="DejaVu Sans,Verdana,Geneva,sans-serif" font-size="11">
        <text x="94.5" y="15" fill="#010101" fill-opacity=".3"> 1 </text>
        <text x="93.5" y="14"> 1 </text>
    </g>
</svg>
