<?xml version="1.0" encoding="UTF-8"?>
<svg xmlns="http://www.w3.org/2000/svg" width="117" height="20">
    <linearGradient id="b" x2="0" y2="100%">
        <stop offset="0" stop-color="#bbb" stop-opacity=".1"/>
        <stop offset="1" stop-opacity=".1"/>
    </linearGradient>
    <mask id="anybadge_8">
        <rect width="117" height="20" rx="3" fill="#fff"/>
    </mask>
    <g mask="url(#anybadge_8)">
        <path fill="#555" d="M0 0h92v20H0z"/>
        <path fill="#4C1" d="M92 0h25v20H92z"/>
        <path fill="url(#b)" d="M0 0h117v20H0z"/>
    </g>
    <g fill="#fff" text-anchor="middle" font-family="DejaVu Sans,Verdana,Geneva,sans-serif" font-size="11">
        <text x="47.0" y="15" fill="#010101" fill-opacity=".3">tests failures</text>
        <text x="46.0" y="14">tests failures</text>
    </g>
    <g fill="#fff" text-anchor="middle" font-family="DejaVu Sans,Verdana,Geneva,sans-serif" font-size="11">
        <text x="105.5" y="15" fill="#010101" fill-opacity=".3"> 0 </text>
        <text x="104.5" y="14"> 0 </text>
    </g>
</svg>
